{
	"additionalNodes": [],
	"additionalParameters": {
		"root": {
			"height": 108,
			"width": 249
		}
	},
	"inputs": [],
	"outputs": [],
	"properties": {
		"08QaRoLLYAM7OK02o9jcUPTtXPSANQ7d": {
			"height": 72,
			"title": "waitUntil",
			"width": 150,
			"x": 1099,
			"y": 68
		},
		"0YTeG7xcquqThli2CZjeMCNvm3VI2SHl": {
			"height": 70,
			"title": "roleSplit",
			"width": 202,
			"x": 498,
			"y": 183
		},
		"45UVNRHsLEt6IIna00k646hnfvDKLmUU": {
			"height": 94,
			"title": "store",
			"width": 421,
			"x": 1801,
			"y": 585
		},
		"8SFdku2pmhCwan6VUTIFyWk2rO7Qg94S": {
			"height": 90,
			"title": "Common.relativeMove",
			"width": 498,
			"x": 1946,
			"y": 117
		},
		"9TgbmE8qmvmaxNdltV60nBO3C2a1Wv2o": {
			"height": 60,
			"title": "sequence",
			"width": 143,
			"x": 1155,
			"y": 179
		},
		"B6wRr4b0ewYpZt4rwisgrimblIrMpFZP": {
			"height": 90,
			"title": "luaCondition",
			"width": 194,
			"x": 887,
			"y": -25
		},
		"BQZ5gwidDJdmCLeC6bEp7cgNP8nmbkTm": {
			"height": 94,
			"title": "store",
			"width": 176,
			"x": 1807,
			"y": 499
		},
		"DYZFpA5jKEdGmKw1Uo56xXrKap9aLktg": {
			"height": 98,
			"title": "store",
			"width": 858,
			"x": 1787,
			"y": 680
		},
		"FMTsSoFfZSMVREBMHBGm7lSe9cG1cEXH": {
			"height": 94,
			"title": "store",
			"width": 265,
			"x": 1809,
			"y": 409
		},
		"FXJKwZ65ZIB88b7R3yfMw0BWidFU5fak": {
			"height": 90,
			"title": "luaCondition",
			"width": 194,
			"x": 1672,
			"y": 201
		},
		"MzZlROgaEdcjI2zAXvIsX5PNdDOZGmu1": {
			"height": 90,
			"title": "luaCondition",
			"width": 326,
			"x": 677,
			"y": 425
		},
		"N8tXxGbEE7BcFUulR0kl4OktWp8K83mU": {
			"height": 92,
			"title": "store",
			"width": 196,
			"x": 1456,
			"y": 86
		},
		"NzmNTDmIcQMm7acslUH4CQrFKdb8tl61": {
			"height": 94,
			"title": "store",
			"width": 291,
			"x": 949,
			"y": -141
		},
		"TabVSvw7UIguGItZhTcofqabJHbrk0Lj": {
			"height": 60,
			"title": "repeat",
			"width": 131,
			"x": 1053,
			"y": 435
		},
		"TtE3odwTiT8mcRSC5X0SUfdOMmjHluxw": {
			"height": 54,
			"title": "failure",
			"width": 131,
			"x": 1076,
			"y": 268
		},
		"ZNYzVkxYTrD3EaFB1KdwhbDcY7lMfMkU": {
			"height": 90,
			"title": "Common.relativeMove",
			"width": 498,
			"x": 1925,
			"y": 250
		},
		"azigACQwbuUGSf7yt6t76i18GAbQKerI": {
			"height": 112,
			"title": "formation.move",
			"width": 452,
			"x": 1783,
			"y": 775
		},
		"cUj7hGnmyc3jT9x2JWb6T3cOsF6Bhnrs": {
			"height": 94,
			"title": "store",
			"width": 266,
			"x": 1207,
			"y": -25
		},
		"fhWADl15hJu2U6oBpb7y8kE6wrdxoF2A": {
			"height": 90,
			"title": "luaCondition",
			"width": 260,
			"x": 777,
			"y": 174
		},
		"gVWRJ2tf1SBDoISMOeIAL05AVPG1U7Ie": {
			"height": 70,
			"title": "parallel",
			"width": 202,
			"x": 295,
			"y": 14
		},
		"pobqOYNXnzOI9MrmzE6D0wPxCaf7TIAa": {
			"height": 60,
			"title": "sequence",
			"width": 143,
			"x": 1279,
			"y": 436
		},
		"s6Uonb5pP7Mrj5br6jVeXf4K9rb4OPhq": {
			"height": 60,
			"title": "repeat",
			"width": 131,
			"x": 1457,
			"y": 214
		},
		"vjb0KHdoycTfglju4hoGFnbVCN6Dfpsz": {
			"height": 60,
			"title": "sequence",
			"width": 143,
			"x": 707,
			"y": -56
		},
		"yTBcVpDzw8gaoSxVcfCW8d5j1KpfKYeW": {
			"height": 60,
			"title": "repeat",
			"width": 131,
			"x": 559,
			"y": -56
		},
		"z4aCU6XDHkX08ayeotsLSyRhexnqzDmy": {
			"height": 72,
			"title": "waitUntil",
			"width": 150,
			"x": 1037,
			"y": 528
		}
	},
	"roles": [ {
		"categories": [ "gortibaldik_nota_beginning.commander" ],
		"name": "CommanderRole"
	}, {
		"categories": [],
		"name": "PeeweeRole"
	} ],
	"root": {
		"children": [ {
			"children": [ {
				"children": [ {
					"children": [],
					"id": "NzmNTDmIcQMm7acslUH4CQrFKdb8tl61",
					"nodeType": "luaCommand",
					"parameters": [ {
						"name": "var",
						"value": "windData"
					}, {
						"name": "value",
						"value": "Wind()"
					}, {
						"name": "scriptName",
						"value": "store"
					} ],
					"scriptName": "store"
				}, {
					"children": [ {
						"children": [],
						"id": "cUj7hGnmyc3jT9x2JWb6T3cOsF6Bhnrs",
						"nodeType": "luaCommand",
						"parameters": [ {
							"name": "var",
							"value": "positionOfCommander"
						}, {
							"name": "value",
							"value": "core.Position(commanderID)"
						}, {
							"name": "scriptName",
							"value": "store"
						} ],
						"scriptName": "store"
					}, {
						"children": [],
						"id": "08QaRoLLYAM7OK02o9jcUPTtXPSANQ7d",
						"nodeType": "luaCommand",
						"parameters": [ {
							"name": "condition",
							"value": "true"
						}, {
							"name": "scriptName",
							"value": "waitUntil"
						} ],
						"scriptName": "waitUntil"
					} ],
					"id": "B6wRr4b0ewYpZt4rwisgrimblIrMpFZP",
					"nodeType": "luaCondition",
					"parameters": [ {
						"name": "expression",
						"value": "commanderID"
					}, {
						"name": "repeat",
						"value": "false"
					} ]
				} ],
				"id": "vjb0KHdoycTfglju4hoGFnbVCN6Dfpsz",
				"nodeType": "sequence",
				"parameters": []
			} ],
			"id": "yTBcVpDzw8gaoSxVcfCW8d5j1KpfKYeW",
			"nodeType": "repeat",
			"parameters": []
		}, {
			"children": [ {
				"children": [ {
					"children": [ {
						"children": [],
						"id": "N8tXxGbEE7BcFUulR0kl4OktWp8K83mU",
						"nodeType": "luaCommand",
						"parameters": [ {
							"name": "var",
							"value": "commanderID"
						}, {
							"name": "value",
							"value": "units[1]"
						}, {
							"name": "scriptName",
							"value": "store"
						} ],
						"scriptName": "store"
					}, {
						"children": [ {
							"children": [ {
								"children": [],
								"id": "8SFdku2pmhCwan6VUTIFyWk2rO7Qg94S",
								"nodeType": "luaCommand",
								"parameters": [ {
									"name": "dist",
									"value": "windData.agentMoveVec * 3"
								}, {
									"name": "fight",
									"value": "false"
								}, {
									"name": "scriptName",
									"value": "Common.relativeMove"
								} ],
								"scriptName": "Common.relativeMove"
							}, {
								"children": [],
								"id": "ZNYzVkxYTrD3EaFB1KdwhbDcY7lMfMkU",
								"nodeType": "luaCommand",
								"parameters": [ {
									"name": "dist",
									"value": "windData.agentMoveVec * 3"
								}, {
									"name": "fight",
									"value": "false"
								}, {
									"name": "scriptName",
									"value": "Common.relativeMove"
								} ],
								"scriptName": "Common.relativeMove"
							} ],
							"id": "FXJKwZ65ZIB88b7R3yfMw0BWidFU5fak",
							"nodeType": "luaCondition",
							"parameters": [ {
								"name": "expression",
								"value": "math.random() < 0.5"
							}, {
								"name": "repeat",
								"value": "true"
							} ]
						} ],
						"id": "s6Uonb5pP7Mrj5br6jVeXf4K9rb4OPhq",
						"nodeType": "repeat",
						"parameters": []
					} ],
					"id": "9TgbmE8qmvmaxNdltV60nBO3C2a1Wv2o",
					"nodeType": "sequence",
					"parameters": []
				}, {
					"children": [],
					"id": "TtE3odwTiT8mcRSC5X0SUfdOMmjHluxw",
					"nodeType": "failure",
					"parameters": []
				} ],
				"id": "fhWADl15hJu2U6oBpb7y8kE6wrdxoF2A",
				"nodeType": "luaCondition",
				"parameters": [ {
					"name": "expression",
					"value": "core.HaveUnits()"
				}, {
					"name": "repeat",
					"value": "false"
				} ]
			}, {
				"children": [ {
					"children": [ {
						"children": [ {
							"children": [],
							"id": "FMTsSoFfZSMVREBMHBGm7lSe9cG1cEXH",
							"nodeType": "luaCommand",
							"parameters": [ {
								"name": "var",
								"value": "formationDefinition"
							}, {
								"name": "value",
								"value": "formation.Definition('swarm')"
							}, {
								"name": "scriptName",
								"value": "store"
							} ],
							"scriptName": "store"
						}, {
							"children": [],
							"id": "BQZ5gwidDJdmCLeC6bEp7cgNP8nmbkTm",
							"nodeType": "luaCommand",
							"parameters": [ {
								"name": "var",
								"value": "groupPosition"
							}, {
								"name": "value",
								"value": "core.Position()"
							}, {
								"name": "scriptName",
								"value": "store"
							} ],
							"scriptName": "store"
						}, {
							"children": [],
							"id": "45UVNRHsLEt6IIna00k646hnfvDKLmUU",
							"nodeType": "luaCommand",
							"parameters": [ {
								"name": "var",
								"value": "newWantedHeading"
							}, {
								"name": "value",
								"value": "(groupPosition - positionOfCommander):ToHeading()"
							}, {
								"name": "scriptName",
								"value": "store"
							} ],
							"scriptName": "store"
						}, {
							"children": [],
							"id": "DYZFpA5jKEdGmKw1Uo56xXrKap9aLktg",
							"nodeType": "luaCommand",
							"parameters": [ {
								"name": "var",
								"value": "relativeFormation"
							}, {
								"name": "value",
								"value": "formation.StaticTransform(formationDefinition.positions, newWantedHeading, nil, formationDefinition.defaults.spacing)"
							}, {
								"name": "scriptName",
								"value": "store"
							} ],
							"scriptName": "store"
						}, {
							"children": [],
							"id": "azigACQwbuUGSf7yt6t76i18GAbQKerI",
							"nodeType": "luaCommand",
							"parameters": [ {
								"name": "position",
								"value": "positionOfCommander - windData.agentMoveVec * 3"
							}, {
								"name": "formation",
								"value": "relativeFormation"
							}, {
								"name": "fight",
								"value": "false"
							}, {
								"name": "scriptName",
								"value": "formation.move"
							} ],
							"scriptName": "formation.move"
						} ],
						"id": "pobqOYNXnzOI9MrmzE6D0wPxCaf7TIAa",
						"nodeType": "sequence",
						"parameters": []
					} ],
					"id": "TabVSvw7UIguGItZhTcofqabJHbrk0Lj",
					"nodeType": "repeat",
					"parameters": []
				}, {
					"children": [],
					"id": "z4aCU6XDHkX08ayeotsLSyRhexnqzDmy",
					"nodeType": "luaCommand",
					"parameters": [ {
						"name": "condition",
						"value": "false"
					}, {
						"name": "scriptName",
						"value": "waitUntil"
					} ],
					"scriptName": "waitUntil"
				} ],
				"id": "MzZlROgaEdcjI2zAXvIsX5PNdDOZGmu1",
				"nodeType": "luaCondition",
				"parameters": [ {
					"name": "expression",
					"value": "core.HaveUnits() and positionOfCommander"
				}, {
					"name": "repeat",
					"value": "true"
				} ]
			} ],
			"id": "0YTeG7xcquqThli2CZjeMCNvm3VI2SHl",
			"nodeType": "roleSplit",
			"parameters": [ {
				"name": "mode",
				"value": "all-success"
			} ]
		} ],
		"id": "gVWRJ2tf1SBDoISMOeIAL05AVPG1U7Ie",
		"nodeType": "parallel",
		"parameters": [ {
			"name": "mode",
			"value": "all-success"
		} ]
	}
}